{
  "LOGGER": "./mods/dummy.cosmod",
  "RENDERER": "./mods/dummy.cosmod",
  "KEYBOARD": "./mods/dummy.cosmod",
  "SHELL": "./mods/dummy.cosmod",
  "PCI": "./mods/dummy.cosmod",
  "AHCI": "./mods/dummy.cosmod",
  "VFAT": "./mods/dummy.cosmod",
  "EXT2": "./mods/dummy.cosmod",
  "POWER": "./mods/dummy.cosmod",
  "USB": "./mods/dummy.cosmod"
}